{
  "rasa_nlu_data": {
    "common_examples": [
      {
        "text": "An wen (in Persona und Adresse) soll ich die Bewerbung adressieren?",
        "intent": "adressat",
        "entities": []
      },
      {
        "text": "Wer ist der Ansprechpartner für die Bewerbung?",
        "intent": "adressat",
        "entities": []
      },
      {
        "text": "Wen soll ich Anschreiben bei meiner Bewerbung?",
        "intent": "adressat",
        "entities": []
      },
      {
        "text": "Wer ist mein Personalverantwortlicher?",
        "intent": "adressat",
        "entities": []
      }
    ]
  }
}