{
  "rasa_nlu_data": {
    "common_examples": [
      {
        "text": "Ist ein Bewerbungsfoto pflicht?",
        "intent": "bewerbungsfoto",
        "entities": []
      },
      {
        "text": "Muss man sich immer mit Bewerbungsfoto bewerben?",
        "intent": "bewerbungsfoto",
        "entities": []
      },
      {
        "text": "Muss ich ein Foto an die Bewerbung hinzufügen?",
        "intent": "bewerbungsfoto",
        "entities": []
      }
    ]
  }
}