{
  "rasa_nlu_data": {
    "common_examples": [
      {
        "text": "Ist das Tragen eines Kopftuches erlaubt?",
        "intent": "migration",
        "entities": []
      },
      {
        "text": "Darf ich bei euch ein Kopftuch tragen?",
        "intent": "migration",
        "entities": []
      },
      {
        "text": "Kann man bei euch ein Kopftuch tragen?",
        "intent": "migration",
        "entities": []
      }
    ]
  }
}