{
  "rasa_nlu_data": {
    "common_examples": [
      {
        "text": "Ich möchte im Ausland bei DB Schenker arbeiten.",
        "intent": "schenker",
        "entities": []
      },
      {
        "text": "Kann ich im Ausland bei DB Schenker arbetien?",
        "intent": "schenker",
        "entities": []
      },
      {
        "text": "Kann man bei DB Schenker auch im Ausland arbeiten?",
        "intent": "schenker",
        "entities": []
      }
    ]
  }
}