{
  "rasa_nlu_data": {
    "common_examples": [
      {
        "text": "Anfragen zum Status einer Bewerbung (alle Bewerber)",
        "intent": "status_bewerbung",
        "entities": []
      },
      {
        "text": "Wie ist der Status meiner Bewerbung?",
        "intent": "status_bewerbung",
        "entities": []
      },
      {
        "text": "Wie sehe ich den Status meiner Bewerbung?",
        "intent": "status_bewerbung",
        "entities": []
      },
      {
        "text": "Woher bekomme ich den Status meiner Bewerbung?",
        "intent": "status_bewerbung",
        "entities": []
      }
    ]
  }
}