{
  "rasa_nlu_data": {
    "common_examples": [
      {
        "text": "Darf ich mich auf mehrere Ausschreibungen bewerben?",
        "intent": "stellenzahl",
        "entities": []
      },
      {
        "text": "Auf wie viele Stellen darf ich mich bewerben?",
        "intent": "stellenzahl",
        "entities": []
      },
      {
        "text": "Wie viele Bewerbungen darf ich schreiben?",
        "intent": "stellenzahl",
        "entities": []
      },
      {
        "text": "Darf ich mich auf mehrere Stellen bewerben?",
        "intent": "stellenzahl",
        "entities": []
      }
    ]
  }
}